	[{
		"_id": "ABC123",
		"firstName": "John",
		"lastName": "Doe",
		"email": "johndoe@mail.com",
		"password": "johndoe123",
		"isAdmin": false,
		"mobileNumber": "+639123456789",
		"enrollments": ["course100", "course123"],
		"dateRegistered": "2023-02-27"

	}


	{
		"_id": "DEF456",
		"firstName": "Clent",
		"lastName": "Bacatan",
		"email": "clentbacatan@mail.com",
		"password": "clent123",
		"isAdmin": true,
		"mobileNumber": "+639123456789",
		"enrollments": [],
		"dateRegistered": "2023-02-27"

	}


	{
		"_id": "GHI789",
		"firstName": "John",
		"lastName": "Doe",
		"email": "johndoe@mail.com",
		"password": "johndoe123",
		"isAdmin": false,
		"mobileNumber": "+639123456789",
		"enrollments": ["course123"],
		"dateRegistered": "2023-02-27"

	}

]